<?xml version="1.0" standalone="no"?>
<!DOCTYPE svg PUBLIC "-//W3C//DTD SVG 20010904//EN"
 "http://www.w3.org/TR/2001/REC-SVG-20010904/DTD/svg10.dtd">
<svg version="1.0" xmlns="http://www.w3.org/2000/svg"
 width="333.000000pt" height="608.000000pt" viewBox="0 0 333.000000 608.000000"
 preserveAspectRatio="xMidYMid meet">

<g transform="translate(0.000000,608.000000) scale(0.100000,-0.100000)"
fill="#000000" stroke="none">
<path d="M2980 6063 c-36 -15 -72 -48 -90 -83 -19 -37 -20 -60 -20 -345 0
-285 1 -308 20 -345 32 -63 73 -85 155 -85 61 0 75 3 107 28 64 50 68 70 68
402 0 331 -4 352 -68 402 -29 22 -49 28 -97 30 -33 1 -67 0 -75 -4z"/>
<path d="M1961 5940 c-78 -19 -131 -86 -131 -168 0 -50 13 -85 131 -341 72
-157 140 -297 152 -309 38 -42 75 -54 141 -50 73 4 116 32 146 93 38 79 34 93
-143 478 -102 220 -116 243 -152 268 -45 31 -94 41 -144 29z"/>
<path d="M1329 4731 c-84 -12 -196 -48 -279 -92 -237 -123 -394 -349 -430
-619 -26 -188 25 -399 134 -559 20 -30 35 -55 34 -56 -2 -1 -30 -12 -63 -25
-110 -42 -245 -125 -336 -206 -173 -154 -290 -344 -356 -579 l-27 -100 -4
-600 c-2 -407 0 -612 7 -636 7 -21 30 -54 56 -78 41 -38 49 -41 102 -42 32 -1
371 -5 753 -8 l695 -6 5 -500 c4 -354 8 -506 17 -520 15 -26 61 -69 93 -86 20
-12 168 -15 813 -17 l787 -3 0 181 0 180 -319 0 -318 0 -5 283 c-4 183 -10
293 -17 312 -28 68 -89 108 -168 108 -61 0 -105 -25 -143 -80 -23 -34 -24 -40
-28 -329 l-5 -294 -176 2 -176 3 -3 440 c-2 477 2 536 54 672 87 234 313 428
561 484 27 6 204 13 396 16 l347 5 0 219 c0 120 -2 219 -4 219 -2 0 -39 -18
-83 -40 -78 -40 -82 -41 -184 -41 -125 0 -181 15 -267 72 -227 149 -276 466
-105 671 56 68 140 126 217 149 56 18 85 21 168 17 92 -5 106 -8 179 -45 l79
-41 0 199 0 198 -72 23 c-63 20 -94 23 -218 22 -135 0 -151 -2 -240 -32 -52
-17 -130 -52 -173 -77 -73 -43 -205 -160 -241 -215 -14 -21 -19 -23 -34 -13
-42 29 -143 82 -207 108 -38 16 -71 30 -73 31 -2 1 14 28 36 61 56 82 78 129
108 230 23 77 27 106 27 223 0 118 -4 146 -27 225 -83 276 -289 480 -566 559
-95 27 -235 39 -321 27z m216 -366 c82 -22 144 -58 208 -122 91 -91 137 -202
137 -328 -1 -341 -377 -564 -678 -400 -74 40 -116 78 -161 146 -127 190 -102
432 60 588 117 112 280 156 434 116z m394 -1295 c106 -34 155 -58 234 -113
l57 -40 0 -92 c0 -181 44 -341 131 -475 21 -33 39 -64 39 -68 0 -4 -30 -18
-67 -32 -76 -29 -202 -101 -279 -161 -108 -83 -246 -248 -309 -369 -10 -19
-35 -78 -56 -130 l-37 -95 -266 -3 -266 -2 0 350 c0 331 -1 353 -20 390 -11
21 -36 51 -57 67 -31 24 -46 28 -98 28 -51 0 -69 -5 -103 -28 -75 -52 -75 -57
-80 -454 l-4 -353 -200 0 -199 0 4 493 c4 536 2 522 65 660 99 216 290 375
527 437 62 17 115 19 482 19 l411 1 91 -30z"/>
</g>
</svg>
