<?xml version="1.0" encoding="utf-8"?>
<svg width="476px" height="803px" viewBox="0 0 476 803" version="1.1" xmlns:xlink="http://www.w3.org/1999/xlink" xmlns="http://www.w3.org/2000/svg">
  <g id="secondhandCard">
    <path d="M106.999 0L369.001 0Q371.628 0 374.251 0.128885Q376.875 0.25777 379.489 0.515229Q382.103 0.772689 384.701 1.1581Q387.299 1.54352 389.875 2.05596Q392.452 2.56839 395 3.20663Q397.548 3.84486 400.061 4.60734Q402.575 5.36982 405.048 6.25473Q407.521 7.13963 409.948 8.14481Q412.374 9.15 414.749 10.273Q417.123 11.3961 419.44 12.6343Q421.756 13.8725 424.009 15.2229Q426.262 16.5733 428.446 18.0326Q430.63 19.4919 432.74 21.0566Q434.85 22.6213 436.88 24.2877Q438.911 25.954 440.857 27.718Q442.803 29.4819 444.661 31.3393Q446.518 33.1966 448.282 35.1429Q450.046 37.0891 451.712 39.1195Q453.379 41.15 454.943 43.2598Q456.508 45.3695 457.967 47.5535Q459.427 49.7375 460.777 51.9905Q462.127 54.2435 463.366 56.56Q464.604 58.8765 465.727 61.251Q466.85 63.6255 467.855 66.0523Q468.86 68.479 469.745 70.9521Q470.63 73.4253 471.393 75.9388Q472.155 78.4524 472.793 81.0004Q473.432 83.5483 473.944 86.1245Q474.456 88.7007 474.842 91.299Q475.227 93.8972 475.485 96.5113Q475.742 99.1253 475.871 101.749Q476 104.372 476 106.999L476 696.001Q476 698.628 475.871 701.251Q475.742 703.875 475.485 706.489Q475.227 709.103 474.842 711.701Q474.456 714.299 473.944 716.875Q473.432 719.452 472.793 722Q472.155 724.548 471.393 727.061Q470.63 729.575 469.745 732.048Q468.86 734.521 467.855 736.948Q466.85 739.374 465.727 741.749Q464.604 744.123 463.366 746.44Q462.127 748.756 460.777 751.009Q459.427 753.262 457.967 755.446Q456.508 757.63 454.943 759.74Q453.379 761.85 451.712 763.88Q450.046 765.911 448.282 767.857Q446.518 769.803 444.661 771.661Q442.803 773.518 440.857 775.282Q438.911 777.046 436.88 778.712Q434.85 780.379 432.74 781.943Q430.63 783.508 428.446 784.967Q426.262 786.427 424.009 787.777Q421.756 789.128 419.44 790.366Q417.123 791.604 414.749 792.727Q412.374 793.85 409.948 794.855Q407.521 795.86 405.048 796.745Q402.575 797.63 400.061 798.393Q397.548 799.155 395 799.793Q392.452 800.432 389.875 800.944Q387.299 801.457 384.701 801.842Q382.103 802.227 379.489 802.485Q376.875 802.742 374.251 802.871Q371.628 803 369.001 803L106.999 803Q104.372 803 101.749 802.871Q99.1253 802.742 96.5113 802.485Q93.8972 802.227 91.299 801.842Q88.7007 801.457 86.1245 800.944Q83.5483 800.432 81.0004 799.793Q78.4524 799.155 75.9388 798.393Q73.4252 797.63 70.9521 796.745Q68.479 795.86 66.0522 794.855Q63.6255 793.85 61.251 792.727Q58.8765 791.604 56.56 790.366Q54.2435 789.127 51.9905 787.777Q49.7375 786.427 47.5535 784.967Q45.3695 783.508 43.2598 781.943Q41.15 780.379 39.1195 778.712Q37.0891 777.046 35.1429 775.282Q33.1966 773.518 31.3393 771.661Q29.4819 769.803 27.718 767.857Q25.954 765.911 24.2877 763.88Q22.6213 761.85 21.0566 759.74Q19.4919 757.63 18.0326 755.446Q16.5733 753.262 15.2229 751.009Q13.8725 748.756 12.6343 746.44Q11.3961 744.123 10.273 741.749Q9.15 739.374 8.14481 736.948Q7.13963 734.521 6.25473 732.048Q5.36982 729.575 4.60734 727.061Q3.84486 724.548 3.20663 722Q2.56839 719.452 2.05596 716.875Q1.54352 714.299 1.1581 711.701Q0.772689 709.103 0.515229 706.489Q0.25777 703.875 0.128885 701.251Q0 698.628 0 696.001L0 106.999Q0 104.372 0.128885 101.749Q0.25777 99.1253 0.515229 96.5113Q0.772689 93.8972 1.1581 91.299Q1.54352 88.7007 2.05596 86.1245Q2.56839 83.5483 3.20663 81.0004Q3.84486 78.4524 4.60734 75.9388Q5.36982 73.4252 6.25473 70.9521Q7.13963 68.479 8.14481 66.0522Q9.15 63.6255 10.273 61.251Q11.3961 58.8765 12.6343 56.56Q13.8725 54.2435 15.2229 51.9905Q16.5733 49.7375 18.0326 47.5535Q19.4919 45.3695 21.0566 43.2598Q22.6213 41.15 24.2877 39.1195Q25.954 37.0891 27.718 35.1429Q29.4819 33.1966 31.3393 31.3393Q33.1966 29.4819 35.1429 27.718Q37.0891 25.954 39.1195 24.2877Q41.15 22.6213 43.2598 21.0566Q45.3695 19.4919 47.5535 18.0326Q49.7375 16.5733 51.9905 15.2229Q54.2435 13.8725 56.56 12.6343Q58.8765 11.3961 61.251 10.273Q63.6255 9.15 66.0523 8.14481Q68.479 7.13963 70.9521 6.25473Q73.4253 5.36982 75.9388 4.60734Q78.4524 3.84486 81.0004 3.20663Q83.5483 2.56839 86.1245 2.05596Q88.7007 1.54352 91.299 1.1581Q93.8972 0.772689 96.5113 0.515229Q99.1253 0.25777 101.749 0.128885Q104.372 0 106.999 0Z" id="Rectangle-Copy-4" fill="#CEB2FC" fill-rule="evenodd" stroke="none" />
    <g id="ssaas-Copy-2" transform="translate(49 615.6001)">
      <g id="Browse" style="mix-blend-mode: multiply;">
        <path d="M27.64 26.48Q26.28 24.7 23.88 23.94Q25.64 23.02 26.62 21.42Q27.6 19.82 27.6 17.78Q27.6 14.42 24.86 12.46Q22.12 10.5 17 10.5L3.32 10.5L3.32 38.5L17.8 38.5Q23.28 38.5 26.14 36.52Q29 34.54 29 30.86Q29 28.26 27.64 26.48ZM9.76 21.98L9.76 15.38L16.2 15.38Q18.6 15.38 19.84 16.2Q21.08 17.02 21.08 18.66Q21.08 20.3 19.84 21.14Q18.6 21.98 16.2 21.98L9.76 21.98ZM42.46 17.46Q40.56 18.26 39.44 19.82L39.44 16.98L33.48 16.98L33.48 38.5L39.72 38.5L39.72 28.34Q39.72 25.34 41.24 23.84Q42.76 22.34 45.44 22.34Q45.8 22.34 46.84 22.42L46.84 16.66Q44.36 16.66 42.46 17.46ZM60.96 38.82Q57.56 38.82 54.86 37.4Q52.16 35.98 50.64 33.46Q49.12 30.94 49.12 27.74Q49.12 24.54 50.64 22.02Q52.16 19.5 54.86 18.08Q57.56 16.66 60.96 16.66Q64.36 16.66 67.04 18.08Q69.72 19.5 71.24 22.02Q72.76 24.54 72.76 27.74Q72.76 30.94 71.24 33.46Q69.72 35.98 67.04 37.4Q64.36 38.82 60.96 38.82ZM121.64 38.82Q118.96 38.82 116.4 38.16Q113.84 37.5 112.32 36.5L114.4 32.02Q115.84 32.94 117.88 33.52Q119.92 34.1 121.88 34.1Q125.84 34.1 125.84 32.14Q125.84 31.22 124.76 30.82Q123.68 30.42 121.44 30.14Q118.8 29.74 117.08 29.22Q115.36 28.7 114.1 27.38Q112.84 26.06 112.84 23.62Q112.84 21.58 114.02 20Q115.2 18.42 117.46 17.54Q119.72 16.66 122.8 16.66Q125.08 16.66 127.34 17.16Q129.6 17.66 131.08 18.54L129 22.98Q126.16 21.38 122.8 21.38Q120.8 21.38 119.8 21.94Q118.8 22.5 118.8 23.38Q118.8 24.38 119.88 24.78Q120.96 25.18 123.32 25.54Q125.96 25.98 127.64 26.48Q129.32 26.98 130.56 28.3Q131.8 29.62 131.8 31.98Q131.8 33.98 130.6 35.54Q129.4 37.1 127.1 37.96Q124.8 38.82 121.64 38.82ZM140.32 29.5L156.6 29.5Q156.72 27.94 156.72 27.82Q156.72 24.46 155.26 21.92Q153.8 19.38 151.24 18.02Q148.68 16.66 145.52 16.66Q142.28 16.66 139.66 18.08Q137.04 19.5 135.54 22.04Q134.04 24.58 134.04 27.74Q134.04 30.94 135.56 33.46Q137.08 35.98 139.88 37.4Q142.68 38.82 146.32 38.82Q152.16 38.82 155.2 35.34L151.88 31.74Q150.76 32.82 149.46 33.32Q148.16 33.82 146.48 33.82Q144.04 33.82 142.4 32.66Q140.76 31.5 140.32 29.5ZM97.68 38.5L103.68 38.5L111.48 16.98L105.96 16.98L100.72 31.54L95.6 16.98L90.32 16.98L85.04 31.54L79.96 16.98L74.08 16.98L81.84 38.5L87.84 38.5L92.84 25.14L97.68 38.5ZM142 22.58Q143.44 21.38 145.56 21.38Q147.64 21.38 149.08 22.6Q150.52 23.82 150.84 25.86L140.24 25.86Q140.56 23.78 142 22.58ZM60.96 33.7Q63.36 33.7 64.9 32.08Q66.44 30.46 66.44 27.74Q66.44 25.02 64.9 23.4Q63.36 21.78 60.96 21.78Q58.56 21.78 57 23.4Q55.44 25.02 55.44 27.74Q55.44 30.46 57 32.08Q58.56 33.7 60.96 33.7ZM21.18 32.78Q19.88 33.62 17.32 33.62L9.76 33.62L9.76 26.7L17.32 26.7Q22.48 26.7 22.48 30.18Q22.48 31.94 21.18 32.78Z" />
      </g>
      <g id="Second-hand" style="mix-blend-mode: multiply;">
        <path d="M153.04 57.82L153.04 87.5L147.08 87.5L147.08 85.02Q144.76 87.82 140.36 87.82Q137.32 87.82 134.86 86.46Q132.4 85.1 131 82.58Q129.6 80.06 129.6 76.74Q129.6 73.42 131 70.9Q132.4 68.38 134.86 67.02Q137.32 65.66 140.36 65.66Q144.48 65.66 146.8 68.26L146.8 57.82L153.04 57.82ZM187.32 65.66Q191.32 65.66 193.78 68.06Q196.24 70.46 196.24 75.18L196.24 87.5L190 87.5L190 76.14Q190 73.58 188.88 72.32Q187.76 71.06 185.64 71.06Q183.28 71.06 181.88 72.52Q180.48 73.98 180.48 76.86L180.48 87.5L174.24 87.5L174.24 57.82L180.48 57.82L180.48 68.22Q181.72 66.98 183.48 66.32Q185.24 65.66 187.32 65.66ZM276.12 87.5L276.12 57.82L269.88 57.82L269.88 68.26Q267.56 65.66 263.44 65.66Q260.4 65.66 257.94 67.02Q255.48 68.38 254.08 70.9Q252.68 73.42 252.68 76.74Q252.68 80.06 254.08 82.58Q255.48 85.1 257.94 86.46Q260.4 87.82 263.44 87.82Q267.84 87.82 270.16 85.02L270.16 87.5L276.12 87.5ZM12.52 87.98Q9.2 87.98 6.1 87.08Q3 86.18 1.12 84.74L3.32 79.86Q5.12 81.18 7.6 81.98Q10.08 82.78 12.56 82.78Q15.32 82.78 16.64 81.96Q17.96 81.14 17.96 79.78Q17.96 78.78 17.18 78.12Q16.4 77.46 15.18 77.06Q13.96 76.66 11.88 76.18Q8.68 75.42 6.64 74.66Q4.6 73.9 3.14 72.22Q1.68 70.54 1.68 67.74Q1.68 65.3 3 63.32Q4.32 61.34 6.98 60.18Q9.64 59.02 13.48 59.02Q16.16 59.02 18.72 59.66Q21.28 60.3 23.2 61.5L21.2 66.42Q17.32 64.22 13.44 64.22Q10.72 64.22 9.42 65.1Q8.12 65.98 8.12 67.42Q8.12 68.86 9.62 69.56Q11.12 70.26 14.2 70.94Q17.4 71.7 19.44 72.46Q21.48 73.22 22.94 74.86Q24.4 76.5 24.4 79.3Q24.4 81.7 23.06 83.68Q21.72 85.66 19.04 86.82Q16.36 87.98 12.52 87.98ZM49.48 76.82Q49.48 76.94 49.36 78.5L33.08 78.5Q33.52 80.5 35.16 81.66Q36.8 82.82 39.24 82.82Q40.92 82.82 42.22 82.32Q43.52 81.82 44.64 80.74L47.96 84.34Q44.92 87.82 39.08 87.82Q35.44 87.82 32.64 86.4Q29.84 84.98 28.32 82.46Q26.8 79.94 26.8 76.74Q26.8 73.58 28.3 71.04Q29.8 68.5 32.42 67.08Q35.04 65.66 38.28 65.66Q41.44 65.66 44 67.02Q46.56 68.38 48.02 70.92Q49.48 73.46 49.48 76.82ZM57.86 86.4Q60.6 87.82 64.04 87.82Q67.44 87.82 69.98 86.38Q72.52 84.94 73.68 82.38L68.84 79.74Q67.2 82.7 64 82.7Q61.56 82.7 59.96 81.1Q58.36 79.5 58.36 76.74Q58.36 73.98 59.96 72.38Q61.56 70.78 64 70.78Q67.16 70.78 68.84 73.74L73.68 71.14Q72.52 68.5 69.98 67.08Q67.44 65.66 64.04 65.66Q60.6 65.66 57.86 67.08Q55.12 68.5 53.58 71.02Q52.04 73.54 52.04 76.74Q52.04 79.94 53.58 82.46Q55.12 84.98 57.86 86.4ZM87.52 87.82Q84.12 87.82 81.42 86.4Q78.72 84.98 77.2 82.46Q75.68 79.94 75.68 76.74Q75.68 73.54 77.2 71.02Q78.72 68.5 81.42 67.08Q84.12 65.66 87.52 65.66Q90.92 65.66 93.6 67.08Q96.28 68.5 97.8 71.02Q99.32 73.54 99.32 76.74Q99.32 79.94 97.8 82.46Q96.28 84.98 93.6 86.4Q90.92 87.82 87.52 87.82ZM123.02 68.06Q120.56 65.66 116.56 65.66Q114.36 65.66 112.52 66.4Q110.68 67.14 109.44 68.5L109.44 65.98L103.48 65.98L103.48 87.5L109.72 87.5L109.72 76.86Q109.72 73.98 111.12 72.52Q112.52 71.06 114.88 71.06Q117 71.06 118.12 72.32Q119.24 73.58 119.24 76.14L119.24 87.5L125.48 87.5L125.48 75.18Q125.48 70.46 123.02 68.06ZM218.24 68.04Q215.56 65.66 210.56 65.66Q207.96 65.66 205.5 66.34Q203.04 67.02 201.28 68.26L203.52 72.62Q204.68 71.7 206.34 71.16Q208 70.62 209.72 70.62Q212.2 70.62 213.44 71.72Q214.68 72.82 214.68 74.86L209.72 74.86Q205 74.86 202.74 76.58Q200.48 78.3 200.48 81.3Q200.48 83.18 201.44 84.66Q202.4 86.14 204.22 86.98Q206.04 87.82 208.52 87.82Q213.32 87.82 215.08 84.82L215.08 87.5L220.92 87.5L220.92 75.22Q220.92 70.42 218.24 68.04ZM239.64 65.66Q243.64 65.66 246.1 68.06Q248.56 70.46 248.56 75.18L248.56 87.5L242.32 87.5L242.32 76.14Q242.32 73.58 241.2 72.32Q240.08 71.06 237.96 71.06Q235.6 71.06 234.2 72.52Q232.8 73.98 232.8 76.86L232.8 87.5L226.56 87.5L226.56 65.98L232.52 65.98L232.52 68.5Q233.76 67.14 235.6 66.4Q237.44 65.66 239.64 65.66ZM38.32 70.38Q36.2 70.38 34.76 71.58Q33.32 72.78 33 74.86L43.6 74.86Q43.28 72.82 41.84 71.6Q40.4 70.38 38.32 70.38ZM87.52 82.7Q89.92 82.7 91.46 81.08Q93 79.46 93 76.74Q93 74.02 91.46 72.4Q89.92 70.78 87.52 70.78Q85.12 70.78 83.56 72.4Q82 74.02 82 76.74Q82 79.46 83.56 81.08Q85.12 82.7 87.52 82.7ZM141.44 82.7Q143.8 82.7 145.36 81.08Q146.92 79.46 146.92 76.74Q146.92 74.02 145.36 72.4Q143.8 70.78 141.44 70.78Q139.04 70.78 137.48 72.4Q135.92 74.02 135.92 76.74Q135.92 79.46 137.48 81.08Q139.04 82.7 141.44 82.7ZM268.44 81.08Q266.88 82.7 264.52 82.7Q262.12 82.7 260.56 81.08Q259 79.46 259 76.74Q259 74.02 260.56 72.4Q262.12 70.78 264.52 70.78Q266.88 70.78 268.44 72.4Q270 74.02 270 76.74Q270 79.46 268.44 81.08ZM169.32 73.74L158 73.74L158 78.74L169.32 78.74L169.32 73.74ZM212.92 82.88Q211.68 83.62 210.08 83.62Q208.44 83.62 207.5 82.92Q206.56 82.22 206.56 81.02Q206.56 78.5 210.4 78.5L214.68 78.5L214.68 80.7Q214.16 82.14 212.92 82.88Z" />
      </g>
      <g id="Furniture" style="mix-blend-mode: multiply;">
        <path d="M101.12 110.98Q102.2 111.98 103.92 111.98Q105.64 111.98 106.72 110.96Q107.8 109.94 107.8 108.38Q107.8 106.94 106.72 105.98Q105.64 105.02 103.92 105.02Q102.2 105.02 101.12 106.02Q100.04 107.02 100.04 108.5Q100.04 109.98 101.12 110.98ZM9.8 113.7L9.8 121.1L22.76 121.1L22.76 126.3L9.8 126.3L9.8 136.5L3.32 136.5L3.32 108.5L24.48 108.5L24.48 113.7L9.8 113.7ZM126.72 135.46Q125.8 136.14 124.46 136.48Q123.12 136.82 121.64 136.82Q117.8 136.82 115.7 134.86Q113.6 132.9 113.6 129.1L113.6 120.26L110.28 120.26L110.28 115.46L113.6 115.46L113.6 110.22L119.84 110.22L119.84 115.46L125.2 115.46L125.2 120.26L119.84 120.26L119.84 129.02Q119.84 130.38 120.54 131.12Q121.24 131.86 122.52 131.86Q124 131.86 125.04 131.06L126.72 135.46ZM64.9 115.46Q63 116.26 61.88 117.82L61.88 114.98L55.92 114.98L55.92 136.5L62.16 136.5L62.16 126.34Q62.16 123.34 63.68 121.84Q65.2 120.34 67.88 120.34Q68.24 120.34 69.28 120.42L69.28 114.66Q66.8 114.66 64.9 115.46ZM86.24 114.66Q90.24 114.66 92.7 117.06Q95.16 119.46 95.16 124.18L95.16 136.5L88.92 136.5L88.92 125.14Q88.92 122.58 87.8 121.32Q86.68 120.06 84.56 120.06Q82.2 120.06 80.8 121.52Q79.4 122.98 79.4 125.86L79.4 136.5L73.16 136.5L73.16 114.98L79.12 114.98L79.12 117.5Q80.36 116.14 82.2 115.4Q84.04 114.66 86.24 114.66ZM163.68 117.82Q164.8 116.26 166.7 115.46Q168.6 114.66 171.08 114.66L171.08 120.42Q170.04 120.34 169.68 120.34Q167 120.34 165.48 121.84Q163.96 123.34 163.96 126.34L163.96 136.5L157.72 136.5L157.72 114.98L163.68 114.98L163.68 117.82ZM179.64 127.5L195.92 127.5Q196.04 125.94 196.04 125.82Q196.04 122.46 194.58 119.92Q193.12 117.38 190.56 116.02Q188 114.66 184.84 114.66Q181.6 114.66 178.98 116.08Q176.36 117.5 174.86 120.04Q173.36 122.58 173.36 125.74Q173.36 128.94 174.88 131.46Q176.4 133.98 179.2 135.4Q182 136.82 185.64 136.82Q191.48 136.82 194.52 133.34L191.2 129.74Q190.08 130.82 188.78 131.32Q187.48 131.82 185.8 131.82Q183.36 131.82 181.72 130.66Q180.08 129.5 179.64 127.5ZM50.12 114.98L50.12 136.5L44.2 136.5L44.2 133.94Q42.96 135.34 41.24 136.08Q39.52 136.82 37.52 136.82Q33.28 136.82 30.8 134.38Q28.32 131.94 28.32 127.14L28.32 114.98L34.56 114.98L34.56 126.22Q34.56 131.42 38.92 131.42Q41.16 131.42 42.52 129.96Q43.88 128.5 43.88 125.62L43.88 114.98L50.12 114.98ZM107.04 136.5L107.04 114.98L100.8 114.98L100.8 136.5L107.04 136.5ZM151.92 136.5L151.92 114.98L145.68 114.98L145.68 125.62Q145.68 128.5 144.32 129.96Q142.96 131.42 140.72 131.42Q136.36 131.42 136.36 126.22L136.36 114.98L130.12 114.98L130.12 127.14Q130.12 131.94 132.6 134.38Q135.08 136.82 139.32 136.82Q141.32 136.82 143.04 136.08Q144.76 135.34 146 133.94L146 136.5L151.92 136.5ZM181.32 120.58Q182.76 119.38 184.88 119.38Q186.96 119.38 188.4 120.6Q189.84 121.82 190.16 123.86L179.56 123.86Q179.88 121.78 181.32 120.58Z" />
      </g>
    </g>
    <path d="M440.933 101.962C418.533 104.062 391.333 111.862 371.133 121.962C340.033 137.562 311.633 162.762 292.433 192.062C281.533 208.562 271.333 231.262 265.933 251.162C265.033 254.362 263.833 257.062 263.133 257.262C262.433 257.462 258.833 258.362 254.933 259.262C228.733 265.462 207.633 285.362 199.433 311.362C196.633 320.162 195.633 337.662 197.333 347.462C200.033 362.562 207.933 377.162 220.333 389.362L227.433 396.362L227.433 469.562C227.433 518.262 227.833 544.562 228.533 548.062C230.433 557.362 237.533 570.662 244.333 577.562C247.633 580.962 252.233 584.962 254.433 586.462L258.433 589.162L258.433 602.262C258.433 609.462 258.833 617.962 259.433 621.262C260.833 630.262 265.433 638.862 272.233 645.662C290.733 664.162 319.733 664.262 338.233 645.862C348.033 636.062 352.333 623.662 352.433 604.562L352.433 597.862L413.933 597.862L475.433 597.862L475.433 582.362L475.433 566.862L382.733 566.862C319.233 566.862 288.133 566.562 283.733 565.762C276.133 564.462 269.533 560.362 264.733 554.062C258.333 545.562 258.433 547.462 258.433 463.462C258.433 420.562 257.933 385.662 257.433 383.362C256.533 379.262 254.633 377.162 244.833 369.562C219.533 349.762 222.533 309.762 250.533 293.562C264.533 285.462 285.933 285.862 298.633 294.562C307.833 300.862 315.533 311.762 318.633 322.762C320.233 328.662 320.433 333.662 320.433 371.862L320.433 414.362L313.933 417.762C301.933 423.862 292.633 437.162 290.433 451.062C286.533 476.362 304.833 500.562 330.433 503.862C334.533 504.362 368.833 504.862 406.733 504.862L475.433 504.862L475.433 489.362L475.433 473.962L403.733 473.662C333.933 473.362 331.833 473.262 328.633 471.362C318.933 465.462 318.933 450.762 328.633 444.862C331.833 442.962 333.833 442.862 403.733 442.862L475.433 442.862L475.433 426.862L475.433 410.862L414.033 410.862L352.633 410.862L352.133 368.062C351.733 328.162 351.533 324.862 349.433 317.462C344.933 300.962 338.133 289.262 326.133 277.662C319.433 271.162 316.333 268.962 307.333 264.562C301.333 261.762 296.433 258.862 296.433 258.362C296.433 255.462 302.233 239.962 307.533 228.862C316.833 209.562 324.733 198.462 340.933 182.362C359.433 163.862 373.833 154.162 397.433 144.362C417.133 136.262 441.133 131.862 466.233 131.862L475.433 131.862L475.433 116.362L475.433 100.862L462.733 100.962C455.633 101.062 445.933 101.562 440.933 101.962L440.933 101.962ZM320.433 607.962C320.433 619.962 318.833 623.462 312.033 626.762C306.833 629.362 304.133 629.362 298.833 626.962C291.833 623.762 290.033 620.062 289.633 608.162L289.233 597.862L304.833 597.862L320.433 597.862L320.433 607.962L320.433 607.962Z" id="armchair" fill="#F0E7FF" fill-rule="evenodd" stroke="none" />
  </g>
</svg>